﻿<Cube xmlns:xsd="http://www.w3.org/2001/XMLSchema" xmlns:xsi="http://www.w3.org/2001/XMLSchema-instance" xmlns:ddl2="http://schemas.microsoft.com/analysisservices/2003/engine/2" xmlns:ddl2_2="http://schemas.microsoft.com/analysisservices/2003/engine/2/2" xmlns:ddl100_100="http://schemas.microsoft.com/analysisservices/2008/engine/100/100" xmlns:ddl200="http://schemas.microsoft.com/analysisservices/2010/engine/200" xmlns:ddl200_200="http://schemas.microsoft.com/analysisservices/2010/engine/200/200" xmlns:ddl300="http://schemas.microsoft.com/analysisservices/2011/engine/300" xmlns:ddl300_300="http://schemas.microsoft.com/analysisservices/2011/engine/300/300" xmlns:ddl400="http://schemas.microsoft.com/analysisservices/2012/engine/400" xmlns:ddl400_400="http://schemas.microsoft.com/analysisservices/2012/engine/400/400" xmlns:ddl500="http://schemas.microsoft.com/analysisservices/2013/engine/500" xmlns:ddl500_500="http://schemas.microsoft.com/analysisservices/2013/engine/500/500" xmlns:dwd="http://schemas.microsoft.com/DataWarehouse/Designer/1.0" dwd:design-time-name="e711c838-71a1-40c6-85f9-9f9be93fa4b1" xmlns="http://schemas.microsoft.com/analysisservices/2003/engine">
  <ID>AdventureWorksDW2014</ID>
  <Name>Internet Sales</Name>
  <CreatedTimestamp>0001-01-01T00:00:00Z</CreatedTimestamp>
  <LastSchemaUpdate>0001-01-01T00:00:00Z</LastSchemaUpdate>
  <Annotations>
    <Annotation>
      <Name>http://schemas.microsoft.com/DataWarehouse/Designer/1.0:DiagramLayout</Name>
      <Value>
        <dds xmlns="">
          <diagram fontclsid="{0BE35203-8F91-11CE-9DE3-00AA004BB851}" mouseiconclsid="{0BE35204-8F91-11CE-9DE3-00AA004BB851}" defaultlayout="MSDDS.Rectilinear" defaultlineroute="MSDDS.Rectilinear" version="7" nextobject="32" scale="100" pagebreakanchorx="0" pagebreakanchory="0" pagebreaksizex="0" pagebreaksizey="0" scrollleft="-2091" scrolltop="-299" gridx="150" gridy="150" marginx="5000" marginy="5000" zoom="100" x="23178" y="13335" backcolor="16777215" defaultpersistence="2" PrintPageNumbersMode="3" PrintMarginTop="0" PrintMarginBottom="635" PrintMarginLeft="0" PrintMarginRight="0" marqueeselectionmode="0" mousepointer="0" snaptogrid="0" autotypeannotation="1" showscrollbars="1" viewpagebreaks="0" donotforceconnectorsbehindshapes="1" backpictureclsid="{00000000-0000-0000-0000-000000000000}">
            <font>
              <ddsxmlobjectstreamwrapper binary="01cc0000900144420100065461686f6d61" />
            </font>
            <mouseicon>
              <ddsxmlobjectstreamwrapper binary="6c74000000000000" />
            </mouseicon>
          </diagram>
          <layoutmanager>
            <ddsxmlobj />
          </layoutmanager>
          <ddscontrol controlprogid="DdsShapes.DdsObjectManagedBridge.3" tooltip="FactInternetSales" left="6997" top="7400" logicalid="16" controlid="1" masterid="0" hint1="0" hint2="0" width="4101" height="5000" noresize="0" nomove="0" nodefaultattachpoints="0" autodrag="1" usedefaultiddshape="1" selectable="1" showselectionhandles="1" allownudging="1" isannotation="0" dontautolayout="0" groupcollapsed="0" tabstop="1" visible="1" snaptogrid="0">
            <control>
              <ddsxmlobjectstreaminitwrapper binary="000a00000510000088130000" />
            </control>
            <layoutobject>
              <ddsxmlobj>
                <property name="LogicalObject" value="dbo_FactInternetSales" vartype="8" />
              </ddsxmlobj>
            </layoutobject>
            <shape groupshapeid="0" groupnode="0" />
          </ddscontrol>
          <ddscontrol controlprogid="DdsShapes.DdsObjectManagedBridge.3" tooltip="DimSalesTerritory" left="13463" top="10884" logicalid="17" controlid="2" masterid="0" hint1="0" hint2="0" width="4498" height="3572" noresize="0" nomove="0" nodefaultattachpoints="0" autodrag="1" usedefaultiddshape="1" selectable="1" showselectionhandles="1" allownudging="1" isannotation="0" dontautolayout="0" groupcollapsed="0" tabstop="1" visible="1" snaptogrid="0">
            <control>
              <ddsxmlobjectstreaminitwrapper binary="000a000092110000f40d0000" />
            </control>
            <layoutobject>
              <ddsxmlobj>
                <property name="LogicalObject" value="dbo_DimSalesTerritory" vartype="8" />
              </ddsxmlobj>
            </layoutobject>
            <shape groupshapeid="0" groupnode="0" />
          </ddscontrol>
          <ddscontrol controlprogid="DdsShapes.DdsObjectManagedBridge.3" tooltip="DimDate" left="6803" top="14668" logicalid="18" controlid="3" masterid="0" hint1="0" hint2="0" width="4524" height="5000" noresize="0" nomove="0" nodefaultattachpoints="0" autodrag="1" usedefaultiddshape="1" selectable="1" showselectionhandles="1" allownudging="1" isannotation="0" dontautolayout="0" groupcollapsed="0" tabstop="1" visible="1" snaptogrid="0">
            <control>
              <ddsxmlobjectstreaminitwrapper binary="000a0000ac11000088130000" />
            </control>
            <layoutobject>
              <ddsxmlobj>
                <property name="LogicalObject" value="dbo_DimDate" vartype="8" />
              </ddsxmlobj>
            </layoutobject>
            <shape groupshapeid="0" groupnode="0" />
          </ddscontrol>
          <ddscontrol controlprogid="DdsShapes.DdsObjectManagedBridge.3" tooltip="DimCustomer" left="13498" top="4648" logicalid="19" controlid="4" masterid="0" hint1="0" hint2="0" width="4207" height="5000" noresize="0" nomove="0" nodefaultattachpoints="0" autodrag="1" usedefaultiddshape="1" selectable="1" showselectionhandles="1" allownudging="1" isannotation="0" dontautolayout="0" groupcollapsed="0" tabstop="1" visible="1" snaptogrid="0">
            <control>
              <ddsxmlobjectstreaminitwrapper binary="000a00006f10000088130000" />
            </control>
            <layoutobject>
              <ddsxmlobj>
                <property name="LogicalObject" value="dbo_DimCustomer" vartype="8" />
              </ddsxmlobj>
            </layoutobject>
            <shape groupshapeid="0" groupnode="0" />
          </ddscontrol>
          <ddscontrol controlprogid="DdsShapes.DdsObjectManagedBridge.3" tooltip="DimPromotion" left="20" top="7400" logicalid="20" controlid="5" masterid="0" hint1="0" hint2="0" width="4577" height="5000" noresize="0" nomove="0" nodefaultattachpoints="0" autodrag="1" usedefaultiddshape="1" selectable="1" showselectionhandles="1" allownudging="1" isannotation="0" dontautolayout="0" groupcollapsed="0" tabstop="1" visible="1" snaptogrid="0">
            <control>
              <ddsxmlobjectstreaminitwrapper binary="000a0000e111000088130000" />
            </control>
            <layoutobject>
              <ddsxmlobj>
                <property name="LogicalObject" value="dbo_DimPromotion" vartype="8" />
              </ddsxmlobj>
            </layoutobject>
            <shape groupshapeid="0" groupnode="0" />
          </ddscontrol>
          <ddscontrol controlprogid="DdsShapes.DdsObjectManagedBridge.3" tooltip="DimProduct" left="6865" top="0" logicalid="21" controlid="6" masterid="0" hint1="0" hint2="0" width="4366" height="5000" noresize="0" nomove="0" nodefaultattachpoints="0" autodrag="1" usedefaultiddshape="1" selectable="1" showselectionhandles="1" allownudging="1" isannotation="0" dontautolayout="0" groupcollapsed="0" tabstop="1" visible="1" snaptogrid="0">
            <control>
              <ddsxmlobjectstreaminitwrapper binary="000a00000e11000088130000" />
            </control>
            <layoutobject>
              <ddsxmlobj>
                <property name="LogicalObject" value="dbo_DimProduct" vartype="8" />
              </ddsxmlobj>
            </layoutobject>
            <shape groupshapeid="0" groupnode="0" />
          </ddscontrol>
          <ddscontrol controlprogid="MSDDS.Polyline" left="10798" top="11171" logicalid="22" controlid="7" masterid="0" hint1="0" hint2="0" width="2965" height="799" noresize="0" nomove="0" nodefaultattachpoints="1" autodrag="0" usedefaultiddshape="0" selectable="1" showselectionhandles="0" allownudging="1" isannotation="0" dontautolayout="0" groupcollapsed="0" tabstop="1" visible="1" snaptogrid="0">
            <control>
              <ddsxmlobj>
                <polyline endtypedst="6" endtypesrc="3" usercolor="0" linestyle="0" linerender="1" customendtypedstid="0" customendtypesrcid="0" adornsvisible="1" />
              </ddsxmlobj>
            </control>
            <layoutobject>
              <ddsxmlobj>
                <property name="LogicalObject" value="dataSet.Relations[FK_FactInternetSales_DimSalesTerritory]" vartype="8" />
                <property name="Virtual" value="0" vartype="11" />
                <property name="VisibleAP" value="0" vartype="3" />
              </ddsxmlobj>
            </layoutobject>
            <connector lineroutestyle="MSDDS.Rectilinear" sourceid="2" destid="1" sourceattachpoint="16" destattachpoint="29" segmenteditmode="0" bendpointeditmode="0" bendpointvisibility="0" relatedid="0" virtual="0">
              <point x="13463" y="11570" />
              <point x="12878" y="11570" />
              <point x="12878" y="11550" />
              <point x="11098" y="11550" />
            </connector>
          </ddscontrol>
          <ddscontrol controlprogid="MSDDS.Polyline" left="10798" top="7849" logicalid="23" controlid="8" masterid="0" hint1="0" hint2="0" width="3000" height="799" noresize="0" nomove="0" nodefaultattachpoints="1" autodrag="0" usedefaultiddshape="0" selectable="1" showselectionhandles="0" allownudging="1" isannotation="0" dontautolayout="0" groupcollapsed="0" tabstop="1" visible="1" snaptogrid="0">
            <control>
              <ddsxmlobj>
                <polyline endtypedst="6" endtypesrc="3" usercolor="0" linestyle="0" linerender="1" customendtypedstid="0" customendtypesrcid="0" adornsvisible="1" />
              </ddsxmlobj>
            </control>
            <layoutobject>
              <ddsxmlobj>
                <property name="LogicalObject" value="dataSet.Relations[FK_FactInternetSales_DimCustomer]" vartype="8" />
                <property name="Virtual" value="0" vartype="11" />
                <property name="VisibleAP" value="0" vartype="3" />
              </ddsxmlobj>
            </layoutobject>
            <connector lineroutestyle="MSDDS.Rectilinear" sourceid="4" destid="1" sourceattachpoint="26" destattachpoint="17" segmenteditmode="0" bendpointeditmode="0" bendpointvisibility="0" relatedid="0" virtual="0">
              <point x="13498" y="8248" />
              <point x="12311" y="8248" />
              <point x="12311" y="8250" />
              <point x="11098" y="8250" />
            </connector>
          </ddscontrol>
          <ddscontrol controlprogid="MSDDS.Polyline" left="4297" top="9501" logicalid="24" controlid="9" masterid="0" hint1="0" hint2="0" width="3000" height="799" noresize="0" nomove="0" nodefaultattachpoints="1" autodrag="0" usedefaultiddshape="0" selectable="1" showselectionhandles="0" allownudging="1" isannotation="0" dontautolayout="0" groupcollapsed="0" tabstop="1" visible="1" snaptogrid="0">
            <control>
              <ddsxmlobj>
                <polyline endtypedst="6" endtypesrc="3" usercolor="0" linestyle="0" linerender="1" customendtypedstid="0" customendtypesrcid="0" adornsvisible="1" />
              </ddsxmlobj>
            </control>
            <layoutobject>
              <ddsxmlobj>
                <property name="LogicalObject" value="dataSet.Relations[FK_FactInternetSales_DimPromotion]" vartype="8" />
                <property name="Virtual" value="0" vartype="11" />
                <property name="VisibleAP" value="0" vartype="3" />
              </ddsxmlobj>
            </layoutobject>
            <connector lineroutestyle="MSDDS.Rectilinear" sourceid="5" destid="1" sourceattachpoint="23" destattachpoint="22" segmenteditmode="0" bendpointeditmode="0" bendpointvisibility="0" relatedid="0" virtual="0">
              <point x="4597" y="9900" />
              <point x="6997" y="9900" />
            </connector>
          </ddscontrol>
          <ddscontrol controlprogid="MSDDS.Polyline" left="8649" top="4501" logicalid="25" controlid="10" masterid="0" hint1="0" hint2="0" width="799" height="3199" noresize="0" nomove="0" nodefaultattachpoints="1" autodrag="0" usedefaultiddshape="0" selectable="1" showselectionhandles="0" allownudging="1" isannotation="0" dontautolayout="0" groupcollapsed="0" tabstop="1" visible="1" snaptogrid="0">
            <control>
              <ddsxmlobj>
                <polyline endtypedst="6" endtypesrc="3" usercolor="0" linestyle="0" linerender="1" customendtypedstid="0" customendtypesrcid="0" adornsvisible="1" />
              </ddsxmlobj>
            </control>
            <layoutobject>
              <ddsxmlobj>
                <property name="LogicalObject" value="dataSet.Relations[FK_FactInternetSales_DimProduct]" vartype="8" />
                <property name="Virtual" value="0" vartype="11" />
                <property name="VisibleAP" value="0" vartype="3" />
              </ddsxmlobj>
            </layoutobject>
            <connector lineroutestyle="MSDDS.Rectilinear" sourceid="6" destid="1" sourceattachpoint="7" destattachpoint="6" segmenteditmode="0" bendpointeditmode="0" bendpointvisibility="0" relatedid="0" virtual="0">
              <point x="9048" y="5000" />
              <point x="9048" y="6200" />
              <point x="9047" y="6200" />
              <point x="9047" y="7400" />
            </connector>
          </ddscontrol>
          <ddscontrol controlprogid="MSDDS.Polyline" left="9766" top="12100" logicalid="26" controlid="11" masterid="0" hint1="0" hint2="0" width="799" height="3068" noresize="0" nomove="0" nodefaultattachpoints="1" autodrag="0" usedefaultiddshape="0" selectable="1" showselectionhandles="0" allownudging="1" isannotation="0" dontautolayout="0" groupcollapsed="0" tabstop="1" visible="1" snaptogrid="0">
            <control>
              <ddsxmlobj>
                <polyline endtypedst="6" endtypesrc="3" usercolor="0" linestyle="0" linerender="1" customendtypedstid="0" customendtypesrcid="0" adornsvisible="1" />
              </ddsxmlobj>
            </control>
            <layoutobject>
              <ddsxmlobj>
                <property name="LogicalObject" value="dataSet.Relations[FK_FactInternetSales_DimDate]" vartype="8" />
                <property name="Virtual" value="0" vartype="11" />
                <property name="VisibleAP" value="0" vartype="3" />
              </ddsxmlobj>
            </layoutobject>
            <connector lineroutestyle="MSDDS.Rectilinear" sourceid="3" destid="1" sourceattachpoint="10" destattachpoint="11" segmenteditmode="0" bendpointeditmode="0" bendpointvisibility="0" relatedid="0" virtual="0">
              <point x="10165" y="14668" />
              <point x="10165" y="13534" />
              <point x="10147" y="13534" />
              <point x="10147" y="12400" />
            </connector>
          </ddscontrol>
          <ddscontrol controlprogid="MSDDS.Polyline" left="8666" top="12100" logicalid="27" controlid="12" masterid="0" hint1="0" hint2="0" width="799" height="3068" noresize="0" nomove="0" nodefaultattachpoints="1" autodrag="0" usedefaultiddshape="0" selectable="1" showselectionhandles="0" allownudging="1" isannotation="0" dontautolayout="0" groupcollapsed="0" tabstop="1" visible="1" snaptogrid="0">
            <control>
              <ddsxmlobj>
                <polyline endtypedst="6" endtypesrc="3" usercolor="0" linestyle="0" linerender="1" customendtypedstid="0" customendtypesrcid="0" adornsvisible="1" />
              </ddsxmlobj>
            </control>
            <layoutobject>
              <ddsxmlobj>
                <property name="LogicalObject" value="dataSet.Relations[FK_FactInternetSales_DimDate2]" vartype="8" />
                <property name="Virtual" value="0" vartype="11" />
                <property name="VisibleAP" value="0" vartype="3" />
              </ddsxmlobj>
            </layoutobject>
            <connector lineroutestyle="MSDDS.Rectilinear" sourceid="3" destid="1" sourceattachpoint="6" destattachpoint="7" segmenteditmode="0" bendpointeditmode="0" bendpointvisibility="0" relatedid="0" virtual="0">
              <point x="9065" y="14668" />
              <point x="9065" y="13534" />
              <point x="9047" y="13534" />
              <point x="9047" y="12400" />
            </connector>
          </ddscontrol>
          <ddscontrol controlprogid="MSDDS.Polyline" left="7566" top="12100" logicalid="28" controlid="13" masterid="0" hint1="0" hint2="0" width="799" height="3068" noresize="0" nomove="0" nodefaultattachpoints="1" autodrag="0" usedefaultiddshape="0" selectable="1" showselectionhandles="0" allownudging="1" isannotation="0" dontautolayout="0" groupcollapsed="0" tabstop="1" visible="1" snaptogrid="0">
            <control>
              <ddsxmlobj>
                <polyline endtypedst="6" endtypesrc="3" usercolor="0" linestyle="0" linerender="1" customendtypedstid="0" customendtypesrcid="0" adornsvisible="1" />
              </ddsxmlobj>
            </control>
            <layoutobject>
              <ddsxmlobj>
                <property name="LogicalObject" value="dataSet.Relations[FK_FactInternetSales_DimDate1]" vartype="8" />
                <property name="Virtual" value="0" vartype="11" />
                <property name="VisibleAP" value="0" vartype="3" />
              </ddsxmlobj>
            </layoutobject>
            <connector lineroutestyle="MSDDS.Rectilinear" sourceid="3" destid="1" sourceattachpoint="2" destattachpoint="3" segmenteditmode="0" bendpointeditmode="0" bendpointvisibility="0" relatedid="0" virtual="0">
              <point x="7965" y="14668" />
              <point x="7965" y="13534" />
              <point x="7947" y="13534" />
              <point x="7947" y="12400" />
            </connector>
          </ddscontrol>
          <ddscontrol controlprogid="DdsShapes.DdsObjectManagedBridge.3" tooltip="DimCurrency" left="197" top="4067" logicalid="29" controlid="14" masterid="0" hint1="0" hint2="0" width="4048" height="2302" noresize="0" nomove="0" nodefaultattachpoints="0" autodrag="1" usedefaultiddshape="1" selectable="1" showselectionhandles="1" allownudging="1" isannotation="0" dontautolayout="0" groupcollapsed="0" tabstop="1" visible="1" snaptogrid="0">
            <control>
              <ddsxmlobjectstreaminitwrapper binary="000a0000d00f0000fe080000" />
            </control>
            <layoutobject>
              <ddsxmlobj>
                <property name="LogicalObject" value="dbo_DimCurrency" vartype="8" />
              </ddsxmlobj>
            </layoutobject>
            <shape groupshapeid="0" groupnode="0" />
          </ddscontrol>
          <ddscontrol controlprogid="MSDDS.Polyline" left="3945" top="5369" logicalid="30" controlid="15" masterid="0" hint1="0" hint2="0" width="3352" height="2631" noresize="0" nomove="0" nodefaultattachpoints="1" autodrag="0" usedefaultiddshape="0" selectable="1" showselectionhandles="0" allownudging="1" isannotation="0" dontautolayout="0" groupcollapsed="0" tabstop="1" visible="1" snaptogrid="0">
            <control>
              <ddsxmlobj>
                <polyline endtypedst="6" endtypesrc="3" usercolor="0" linestyle="0" linerender="1" customendtypedstid="0" customendtypesrcid="0" adornsvisible="1" />
              </ddsxmlobj>
            </control>
            <layoutobject>
              <ddsxmlobj>
                <property name="LogicalObject" value="dataSet.Relations[FK_FactInternetSales_DimCurrency]" vartype="8" />
                <property name="Virtual" value="0" vartype="11" />
                <property name="VisibleAP" value="0" vartype="3" />
              </ddsxmlobj>
            </layoutobject>
            <connector lineroutestyle="MSDDS.Rectilinear" sourceid="14" destid="1" sourceattachpoint="19" destattachpoint="14" segmenteditmode="0" bendpointeditmode="0" bendpointvisibility="0" relatedid="0" virtual="0">
              <point x="4245" y="5768" />
              <point x="5766" y="5768" />
              <point x="5766" y="7700" />
              <point x="6997" y="7700" />
            </connector>
          </ddscontrol>
        </dds>
      </Value>
    </Annotation>
    <Annotation>
      <Name>http://schemas.microsoft.com/DataWarehouse/Designer/1.0:ShowFriendlyNames</Name>
      <Value>true</Value>
    </Annotation>
    <Annotation>
      <Name>http://schemas.microsoft.com/DataWarehouse/Designer/1.0:ShowRelationshipNames</Name>
      <Value>false</Value>
    </Annotation>
    <Annotation>
      <Name>http://schemas.microsoft.com/DataWarehouse/Designer/1.0:UseDiagramDefaultLayout</Name>
      <Value>true</Value>
    </Annotation>
    <Annotation>
      <Name>http://schemas.microsoft.com/DataWarehouse/Designer/1.0:DiagramViewPortLeft</Name>
      <Value>-2091</Value>
    </Annotation>
    <Annotation>
      <Name>http://schemas.microsoft.com/DataWarehouse/Designer/1.0:DiagramViewPortTop</Name>
      <Value>-299</Value>
    </Annotation>
    <Annotation>
      <Name>http://schemas.microsoft.com/DataWarehouse/Designer/1.0:DiagramBoundingLeft</Name>
      <Value>20</Value>
    </Annotation>
    <Annotation>
      <Name>http://schemas.microsoft.com/DataWarehouse/Designer/1.0:DiagramBoundingTop</Name>
      <Value>0</Value>
    </Annotation>
    <Annotation>
      <Name>http://schemas.microsoft.com/DataWarehouse/Designer/1.0:DiagramZoom</Name>
      <Value>100</Value>
    </Annotation>
  </Annotations>
  <LastProcessed>0001-01-01T00:00:00Z</LastProcessed>
  <State>Unprocessed</State>
  <Dimensions>
    <Dimension dwd:design-time-name="7d48f2ee-5ea3-4654-a05f-1fa8a62437dc">
      <ID>Dim Sales Territory</ID>
      <Name>Dim Sales Territory</Name>
      <DimensionID>Dim Sales Territory</DimensionID>
      <Attributes>
        <Attribute dwd:design-time-name="c672f5b3-b47b-4988-9994-9ec2be27f6a2">
          <AttributeID>Sales Territory Key</AttributeID>
        </Attribute>
        <Attribute dwd:design-time-name="b84fc4c2-767e-42bb-ab27-3c361e19e2d8">
          <AttributeID>Sales Territory Region</AttributeID>
        </Attribute>
        <Attribute dwd:design-time-name="7d054a6a-6854-49f7-86a1-e6cf3d9d2ad5">
          <AttributeID>Sales Territory Country</AttributeID>
        </Attribute>
        <Attribute dwd:design-time-name="b69be080-fec8-4aae-b154-b892c791be58">
          <AttributeID>Sales Territory Group</AttributeID>
        </Attribute>
      </Attributes>
      <Hierarchies>
        <Hierarchy dwd:design-time-name="1854a89d-c354-43f0-a5fe-5e28aed3eb9f">
          <HierarchyID>Hierarchy</HierarchyID>
        </Hierarchy>
      </Hierarchies>
    </Dimension>
    <Dimension dwd:design-time-name="215c77cc-bac2-4477-8831-995166feb4f0">
      <ID>Dim Customer</ID>
      <Name>Dim Customer</Name>
      <DimensionID>Dim Customer</DimensionID>
      <Attributes>
        <Attribute dwd:design-time-name="2bd4caa9-037e-4af9-a123-72e61ad3a3a7">
          <AttributeID>Customer Key</AttributeID>
        </Attribute>
        <Attribute dwd:design-time-name="7814cced-2406-401e-b1a8-fb27edb6578d">
          <AttributeID>Marital Status</AttributeID>
        </Attribute>
        <Attribute dwd:design-time-name="fb07f308-d522-42d6-8def-20f4c3b975ce">
          <AttributeID>Yearly Income</AttributeID>
        </Attribute>
        <Attribute dwd:design-time-name="49210530-1728-4208-ac70-8266ad102245">
          <AttributeID>Total Children</AttributeID>
        </Attribute>
        <Attribute dwd:design-time-name="dc450e17-1db2-4d5e-bfab-c22d5901faea">
          <AttributeID>English Education</AttributeID>
        </Attribute>
        <Attribute dwd:design-time-name="4898adad-64ce-48ef-ab10-840970f3e6d4">
          <AttributeID>Number Cars Owned</AttributeID>
        </Attribute>
      </Attributes>
    </Dimension>
    <Dimension dwd:design-time-name="a5bbd0a0-8ec9-4b8c-9968-d2c91f2d5a31">
      <ID>Dim Promotion</ID>
      <Name>Dim Promotion</Name>
      <DimensionID>Dim Promotion</DimensionID>
      <Attributes>
        <Attribute dwd:design-time-name="a1db3f54-5b4b-4f5d-b5c5-41e7b035a82e">
          <AttributeID>Promotion Key</AttributeID>
        </Attribute>
        <Attribute dwd:design-time-name="7d02e0f5-3806-4b81-ab60-999806e00a92">
          <AttributeID>English Promotion Name</AttributeID>
        </Attribute>
        <Attribute dwd:design-time-name="5751b01e-bf01-4794-bea9-a100caac5e42">
          <AttributeID>English Promotion Type</AttributeID>
        </Attribute>
        <Attribute dwd:design-time-name="c3c7fcfc-3ab7-4d5a-a6c5-3d6dd0fd6c4a">
          <AttributeID>English Promotion Category</AttributeID>
        </Attribute>
      </Attributes>
      <Hierarchies>
        <Hierarchy dwd:design-time-name="da0bd4c0-bc44-401c-8cfe-ad5a46d504b1">
          <HierarchyID>Hierarchy</HierarchyID>
        </Hierarchy>
      </Hierarchies>
    </Dimension>
    <Dimension dwd:design-time-name="75f6f5a8-1ede-4ccb-83fd-27cd5ed01d4e">
      <ID>Dim Product</ID>
      <Name>Dim Product</Name>
      <DimensionID>Dim Product</DimensionID>
      <Attributes>
        <Attribute dwd:design-time-name="5281ccc9-7627-4fba-b45c-e6ee51ee89b5">
          <AttributeID>Product Key</AttributeID>
        </Attribute>
        <Attribute dwd:design-time-name="dbb3fbea-707a-4889-bcf2-228d8425fb47">
          <AttributeID>Product Line</AttributeID>
        </Attribute>
        <Attribute dwd:design-time-name="f98ae2b1-2090-46f2-8ca1-8b3dfa6d3307">
          <AttributeID>Model Name</AttributeID>
        </Attribute>
      </Attributes>
    </Dimension>
    <Dimension dwd:design-time-name="a078fcaf-18bd-46c5-806a-b700c3c68cd4">
      <ID>Order Date</ID>
      <Name>Order Date</Name>
      <DimensionID>Dim Date</DimensionID>
      <Attributes>
        <Attribute dwd:design-time-name="ca1a6911-2b3c-4e5a-9199-cc59b998829e">
          <AttributeID>Date Key</AttributeID>
        </Attribute>
        <Attribute dwd:design-time-name="5d545625-57a7-4975-99b9-e188876ec435">
          <AttributeID>Calendar Year</AttributeID>
        </Attribute>
        <Attribute dwd:design-time-name="ea7b53bd-e402-41c6-b2ad-c332f09ca46e">
          <AttributeID>Month Number Of Year</AttributeID>
        </Attribute>
        <Attribute dwd:design-time-name="bf4e810d-4c66-47ac-93ad-a67e722523de">
          <AttributeID>Decans</AttributeID>
        </Attribute>
        <Attribute dwd:design-time-name="2ac5337d-3c37-4461-9daf-4c9e2862efb7">
          <AttributeID>Month Number Of Year 1</AttributeID>
        </Attribute>
        <Attribute dwd:design-time-name="b129cb22-79f7-45de-bbb5-fa4d51e9617d">
          <AttributeID>Decans 1</AttributeID>
        </Attribute>
        <Attribute dwd:design-time-name="da6143c7-3ef9-4a31-b537-7cc187e591fb">
          <AttributeID>Calendar Semester</AttributeID>
        </Attribute>
        <Attribute dwd:design-time-name="9a5eeae8-d062-4128-9679-90dcb691e271">
          <AttributeID>Calendar Quarter</AttributeID>
        </Attribute>
        <Attribute dwd:design-time-name="ac090e24-a694-4fff-a680-28155b5d088b">
          <AttributeID>Calendar Quarter 1</AttributeID>
        </Attribute>
        <Attribute dwd:design-time-name="c2d98906-bd15-4eed-b2da-1ffc331763e4">
          <AttributeID>Calendar Semester 1</AttributeID>
        </Attribute>
        <Attribute dwd:design-time-name="14e81aef-86ef-4000-921f-d74c7c53c95d">
          <AttributeID>Decans 1 1</AttributeID>
        </Attribute>
      </Attributes>
      <Hierarchies>
        <Hierarchy dwd:design-time-name="0ce61bb7-4d4e-428f-bdad-9e229fee005a">
          <HierarchyID>Hierarchy</HierarchyID>
        </Hierarchy>
        <Hierarchy dwd:design-time-name="285618cc-2128-4886-a234-2093026d4a4e">
          <HierarchyID>Hierarchy 1</HierarchyID>
        </Hierarchy>
        <Hierarchy dwd:design-time-name="6b950fa4-2d08-4d9a-a7fe-d49f18a22a31">
          <HierarchyID>Hierarchy 2</HierarchyID>
        </Hierarchy>
      </Hierarchies>
    </Dimension>
    <Dimension dwd:design-time-name="a51c37e8-d9f6-4a56-8d28-516c64f26afb">
      <ID>Ship Date</ID>
      <Name>Ship Date</Name>
      <DimensionID>Dim Date</DimensionID>
      <Attributes>
        <Attribute dwd:design-time-name="a2312d8f-9988-41d2-8d17-55f5e9234778">
          <AttributeID>Date Key</AttributeID>
        </Attribute>
        <Attribute dwd:design-time-name="0b1e7548-5bb3-4d5a-a67f-3544d99fb402">
          <AttributeID>Calendar Year</AttributeID>
        </Attribute>
        <Attribute dwd:design-time-name="4a5ef9b5-2947-4536-87b4-db24c9fe68bc">
          <AttributeID>Month Number Of Year</AttributeID>
        </Attribute>
        <Attribute dwd:design-time-name="f90beba1-3fcf-47e1-ad11-f3acead70bf2">
          <AttributeID>Decans</AttributeID>
        </Attribute>
        <Attribute dwd:design-time-name="5075251c-3a02-4367-babb-8c3675b11396">
          <AttributeID>Month Number Of Year 1</AttributeID>
        </Attribute>
        <Attribute dwd:design-time-name="e306810e-9965-434f-8000-4dde75aeda1f">
          <AttributeID>Decans 1</AttributeID>
        </Attribute>
        <Attribute dwd:design-time-name="0d37fd31-ceb0-4f55-b81e-0c9b969663d1">
          <AttributeID>Calendar Semester</AttributeID>
        </Attribute>
        <Attribute dwd:design-time-name="cfb81a7b-ca51-493a-98af-975a5856ea16">
          <AttributeID>Calendar Quarter</AttributeID>
        </Attribute>
        <Attribute dwd:design-time-name="207f8d55-be6a-4aa9-a832-de62434c89f8">
          <AttributeID>Calendar Quarter 1</AttributeID>
        </Attribute>
        <Attribute dwd:design-time-name="ebcb5184-dfb6-4eb2-a6fe-f30007322e5f">
          <AttributeID>Calendar Semester 1</AttributeID>
        </Attribute>
        <Attribute dwd:design-time-name="103e67f0-02f0-4edd-aa7f-1cef7d8395ca">
          <AttributeID>Decans 1 1</AttributeID>
        </Attribute>
      </Attributes>
      <Hierarchies>
        <Hierarchy dwd:design-time-name="6016f0c1-20e9-4091-b7fc-7351800737cf">
          <HierarchyID>Hierarchy</HierarchyID>
        </Hierarchy>
        <Hierarchy dwd:design-time-name="970c74db-5430-40bf-9104-49d11827f086">
          <HierarchyID>Hierarchy 1</HierarchyID>
        </Hierarchy>
        <Hierarchy dwd:design-time-name="fd81cc54-cfb0-4c1c-bbd1-f03119c5e740">
          <HierarchyID>Hierarchy 2</HierarchyID>
        </Hierarchy>
      </Hierarchies>
    </Dimension>
    <Dimension dwd:design-time-name="04bf2fe2-d1ea-4c02-9dc9-f358a50f6107">
      <ID>Due Date</ID>
      <Name>Due Date</Name>
      <DimensionID>Dim Date</DimensionID>
      <Attributes>
        <Attribute dwd:design-time-name="4a89f59c-1dfb-4ddb-94d3-5260dfa39ba6">
          <AttributeID>Date Key</AttributeID>
        </Attribute>
        <Attribute dwd:design-time-name="1c0b564b-735f-4f4a-adc3-1de3d2a276f8">
          <AttributeID>Calendar Year</AttributeID>
        </Attribute>
        <Attribute dwd:design-time-name="9ff08e86-2beb-46ab-a483-659516ef2b32">
          <AttributeID>Month Number Of Year</AttributeID>
        </Attribute>
        <Attribute dwd:design-time-name="0b3fbee1-8b69-4b4c-bb18-5a25269d9242">
          <AttributeID>Decans</AttributeID>
        </Attribute>
        <Attribute dwd:design-time-name="64427eab-3cc7-415f-9d78-b2cbbadc21c7">
          <AttributeID>Month Number Of Year 1</AttributeID>
        </Attribute>
        <Attribute dwd:design-time-name="568bf9c8-2ae2-429d-947a-2a90807e25c3">
          <AttributeID>Decans 1</AttributeID>
        </Attribute>
        <Attribute dwd:design-time-name="ac61d8b0-4844-428a-b315-e77218183102">
          <AttributeID>Calendar Semester</AttributeID>
        </Attribute>
        <Attribute dwd:design-time-name="da710197-5900-4119-897c-df8b159e3925">
          <AttributeID>Calendar Quarter</AttributeID>
        </Attribute>
        <Attribute dwd:design-time-name="2f9664eb-f61b-4816-9069-0b7c315baa1d">
          <AttributeID>Calendar Quarter 1</AttributeID>
        </Attribute>
        <Attribute dwd:design-time-name="f05727d5-cd32-4c90-8fc1-559d456acb5e">
          <AttributeID>Calendar Semester 1</AttributeID>
        </Attribute>
        <Attribute dwd:design-time-name="04e69760-a4a4-4a03-9f2f-7e906dedc3f5">
          <AttributeID>Decans 1 1</AttributeID>
        </Attribute>
      </Attributes>
      <Hierarchies>
        <Hierarchy dwd:design-time-name="cc8f1461-474d-4ab9-9133-4619559e5974">
          <HierarchyID>Hierarchy</HierarchyID>
        </Hierarchy>
        <Hierarchy dwd:design-time-name="9e26931d-cc1e-48df-9f2f-4ea408b2901b">
          <HierarchyID>Hierarchy 1</HierarchyID>
        </Hierarchy>
        <Hierarchy dwd:design-time-name="6c3e08bb-4c13-4347-b5dc-51feeb0e53ae">
          <HierarchyID>Hierarchy 2</HierarchyID>
        </Hierarchy>
      </Hierarchies>
    </Dimension>
  </Dimensions>
  <MeasureGroups>
    <MeasureGroup dwd:design-time-name="3c5304c2-291f-4bf8-91b9-25e98a1b182e">
      <ID>Fact Internet Sales</ID>
      <Name>Fact Internet Sales</Name>
      <CreatedTimestamp>0001-01-01T00:00:00Z</CreatedTimestamp>
      <LastSchemaUpdate>0001-01-01T00:00:00Z</LastSchemaUpdate>
      <LastProcessed>0001-01-01T00:00:00Z</LastProcessed>
      <State>Unprocessed</State>
      <Measures>
        <Measure dwd:design-time-name="14e02100-ac6a-4699-9bcf-9affe7221680">
          <ID>Unit Price</ID>
          <Name>Unit Price</Name>
          <Source dwd:design-time-name="cf0faba0-88d3-4e45-85d3-b3cae9ea628d">
            <DataType>Double</DataType>
            <Source xsi:type="ColumnBinding" dwd:design-time-name="4701677f-cfdc-4c0a-b497-adef57d5b621">
              <TableID>dbo_FactInternetSales</TableID>
              <ColumnID>UnitPrice</ColumnID>
            </Source>
          </Source>
        </Measure>
        <Measure dwd:design-time-name="23486963-31a9-4546-991d-4ebe942e6454">
          <ID>Product Standard Cost</ID>
          <Name>Product Standard Cost</Name>
          <Source dwd:design-time-name="195a5980-cd51-4ef7-9bc4-3a5c34eb6fc2">
            <DataType>Double</DataType>
            <Source xsi:type="ColumnBinding" dwd:design-time-name="dbb7a3db-5b8a-4ec0-9165-b33552fbb483">
              <TableID>dbo_FactInternetSales</TableID>
              <ColumnID>ProductStandardCost</ColumnID>
            </Source>
          </Source>
        </Measure>
        <Measure dwd:design-time-name="d7fe367d-b01c-446a-92f5-3684caa449bc">
          <ID>Total Product Cost</ID>
          <Name>Total Product Cost</Name>
          <Source dwd:design-time-name="e4e70226-36c2-4317-b276-5f985c655c6d">
            <DataType>Double</DataType>
            <Source xsi:type="ColumnBinding" dwd:design-time-name="3563b293-e867-4534-8982-46ae6c407927">
              <TableID>dbo_FactInternetSales</TableID>
              <ColumnID>TotalProductCost</ColumnID>
            </Source>
          </Source>
        </Measure>
        <Measure dwd:design-time-name="55a8dea1-fcb8-46b5-a0fd-df90ece446e8">
          <ID>Sales Amount</ID>
          <Name>Sales Amount</Name>
          <Source dwd:design-time-name="5c647e68-e353-4520-8fc2-ce317d0855bd">
            <DataType>Double</DataType>
            <Source xsi:type="ColumnBinding" dwd:design-time-name="99b3b3cd-786f-4d8d-a9d3-d95dd7a79f7f">
              <TableID>dbo_FactInternetSales</TableID>
              <ColumnID>SalesAmount</ColumnID>
            </Source>
          </Source>
        </Measure>
        <Measure dwd:design-time-name="8746caf6-cdf0-4fe0-8e08-3e592d1f09e5">
          <ID>Fact Internet Sales Count</ID>
          <Name>Rows Count</Name>
          <AggregateFunction>Count</AggregateFunction>
          <Source dwd:design-time-name="9da71888-f32a-40e9-bcf9-6dba24a3c996">
            <DataType>Integer</DataType>
            <DataSize>4</DataSize>
            <Source xsi:type="RowBinding" dwd:design-time-name="c6d47586-7d8e-4fe5-88d5-c495c512b1b7">
              <TableID>dbo_FactInternetSales</TableID>
            </Source>
          </Source>
        </Measure>
        <Measure dwd:design-time-name="7f662990-8091-4a93-804c-6730ca29e3f8">
          <ID>Product Standart Cost Plus Unit Price</ID>
          <Name>Standart Cost Plus Unit Price</Name>
          <Source dwd:design-time-name="8fc05a28-9d10-46a5-bf24-951825ddeb23">
            <DataType>Double</DataType>
            <Source xsi:type="ColumnBinding" dwd:design-time-name="89f9d227-3ab8-4c08-bdcb-8e0784c2e25f">
              <TableID>dbo_FactInternetSales</TableID>
              <ColumnID>ProductStandartCost_Plus_UnitPrice</ColumnID>
            </Source>
          </Source>
        </Measure>
      </Measures>
      <StorageMode>Molap</StorageMode>
      <ProcessingMode>Regular</ProcessingMode>
      <Dimensions>
        <Dimension xsi:type="RegularMeasureGroupDimension" dwd:design-time-name="4e124ee4-2bfd-4226-a8c9-130ccc5cb081">
          <CubeDimensionID>Dim Sales Territory</CubeDimensionID>
          <Attributes>
            <Attribute dwd:design-time-name="b37f0170-784d-47fd-a753-bafcc62255ff">
              <AttributeID>Sales Territory Key</AttributeID>
              <KeyColumns>
                <KeyColumn dwd:design-time-name="62c48656-ffe6-44b6-9738-34434b1f1f41">
                  <DataType>Integer</DataType>
                  <Source xsi:type="ColumnBinding" dwd:design-time-name="d5b81d65-7607-4f2f-b8b9-30bffca6625b">
                    <TableID>dbo_FactInternetSales</TableID>
                    <ColumnID>SalesTerritoryKey</ColumnID>
                  </Source>
                </KeyColumn>
              </KeyColumns>
              <Type>Granularity</Type>
            </Attribute>
          </Attributes>
        </Dimension>
        <Dimension xsi:type="RegularMeasureGroupDimension" dwd:design-time-name="5bc17149-3eff-4007-b226-62eb684c2599">
          <CubeDimensionID>Dim Customer</CubeDimensionID>
          <Attributes>
            <Attribute dwd:design-time-name="bcb33562-d438-4677-8884-11bfd0882efe">
              <AttributeID>Customer Key</AttributeID>
              <KeyColumns>
                <KeyColumn dwd:design-time-name="3c09bf30-2b44-4983-9b14-16257dee977a">
                  <DataType>Integer</DataType>
                  <Source xsi:type="ColumnBinding" dwd:design-time-name="e47d2845-4f33-438b-8a91-daaf697f215b">
                    <TableID>dbo_FactInternetSales</TableID>
                    <ColumnID>CustomerKey</ColumnID>
                  </Source>
                </KeyColumn>
              </KeyColumns>
              <Type>Granularity</Type>
            </Attribute>
          </Attributes>
        </Dimension>
        <Dimension xsi:type="RegularMeasureGroupDimension" dwd:design-time-name="cd814cab-c9d5-4228-9aa1-7539e2ece090">
          <CubeDimensionID>Dim Promotion</CubeDimensionID>
          <Attributes>
            <Attribute dwd:design-time-name="a423c8c8-4892-4cff-8a92-01d835fbc40e">
              <AttributeID>Promotion Key</AttributeID>
              <KeyColumns>
                <KeyColumn dwd:design-time-name="c43edce7-03c0-4584-9c0f-7d91165a97f0">
                  <DataType>Integer</DataType>
                  <Source xsi:type="ColumnBinding" dwd:design-time-name="0cf5d858-6cbb-4203-ad53-cfe3c1bafaa0">
                    <TableID>dbo_FactInternetSales</TableID>
                    <ColumnID>PromotionKey</ColumnID>
                  </Source>
                </KeyColumn>
              </KeyColumns>
              <Type>Granularity</Type>
            </Attribute>
          </Attributes>
        </Dimension>
        <Dimension xsi:type="RegularMeasureGroupDimension" dwd:design-time-name="eeceb77c-91a7-4770-9c3f-ad6e5ad8a5f8">
          <CubeDimensionID>Dim Product</CubeDimensionID>
          <Attributes>
            <Attribute dwd:design-time-name="338af81a-301f-4b02-b565-fc0a24e9ef39">
              <AttributeID>Product Key</AttributeID>
              <KeyColumns>
                <KeyColumn dwd:design-time-name="eb610a5a-2aac-4305-b7d0-bc6cc088f57d">
                  <DataType>Integer</DataType>
                  <Source xsi:type="ColumnBinding" dwd:design-time-name="a02ff961-cbb1-4e0f-96a3-31316d3686ac">
                    <TableID>dbo_FactInternetSales</TableID>
                    <ColumnID>ProductKey</ColumnID>
                  </Source>
                </KeyColumn>
              </KeyColumns>
              <Type>Granularity</Type>
            </Attribute>
          </Attributes>
        </Dimension>
        <Dimension xsi:type="RegularMeasureGroupDimension" dwd:design-time-name="e3d6a38b-df26-4e4f-a05b-9273c9892dca">
          <CubeDimensionID>Order Date</CubeDimensionID>
          <Attributes>
            <Attribute dwd:design-time-name="0e90eaa7-084f-4864-b30b-36194c15994f">
              <AttributeID>Date Key</AttributeID>
              <KeyColumns>
                <KeyColumn dwd:design-time-name="50dd63bf-e02a-4448-9bec-7e4218702287">
                  <DataType>Integer</DataType>
                  <Source xsi:type="ColumnBinding" dwd:design-time-name="bf72ba95-05d8-4db5-b734-e0a62e527381">
                    <TableID>dbo_FactInternetSales</TableID>
                    <ColumnID>OrderDateKey</ColumnID>
                  </Source>
                </KeyColumn>
              </KeyColumns>
              <Type>Granularity</Type>
            </Attribute>
          </Attributes>
        </Dimension>
        <Dimension xsi:type="RegularMeasureGroupDimension" dwd:design-time-name="7df9da5d-a740-44c7-842e-961b41653c28">
          <CubeDimensionID>Ship Date</CubeDimensionID>
          <Attributes>
            <Attribute dwd:design-time-name="aa906a64-9648-41b3-ad49-4bc4f2eca28e">
              <AttributeID>Date Key</AttributeID>
              <KeyColumns>
                <KeyColumn dwd:design-time-name="8e2217a0-efe1-4d6f-96f6-4188a68c97c5">
                  <DataType>Integer</DataType>
                  <Source xsi:type="ColumnBinding" dwd:design-time-name="9078b57a-6e74-432a-886f-8589e177ed9d">
                    <TableID>dbo_FactInternetSales</TableID>
                    <ColumnID>ShipDateKey</ColumnID>
                  </Source>
                </KeyColumn>
              </KeyColumns>
              <Type>Granularity</Type>
            </Attribute>
          </Attributes>
        </Dimension>
        <Dimension xsi:type="RegularMeasureGroupDimension" dwd:design-time-name="c4b5bb66-e5c7-49c6-b606-ddf006f41a4e">
          <CubeDimensionID>Due Date</CubeDimensionID>
          <Attributes>
            <Attribute dwd:design-time-name="e6b81bfc-51e0-4e84-b085-4b37dce58889">
              <AttributeID>Date Key</AttributeID>
              <KeyColumns>
                <KeyColumn dwd:design-time-name="0db0aecb-976c-43fb-a9b9-1cd2b98d2b9e">
                  <DataType>Integer</DataType>
                  <Source xsi:type="ColumnBinding" dwd:design-time-name="35839128-b29a-460e-afd2-a266273cbbce">
                    <TableID>dbo_FactInternetSales</TableID>
                    <ColumnID>DueDateKey</ColumnID>
                  </Source>
                </KeyColumn>
              </KeyColumns>
              <Type>Granularity</Type>
            </Attribute>
          </Attributes>
        </Dimension>
      </Dimensions>
      <Partitions />
    </MeasureGroup>
    <MeasureGroup dwd:design-time-name="b5421734-8688-4b44-9337-7eec0387e6cd">
      <ID>Fact Internet Sales 1</ID>
      <Name>Fact Internet Sales 1</Name>
      <CreatedTimestamp>0001-01-01T00:00:00Z</CreatedTimestamp>
      <LastSchemaUpdate>0001-01-01T00:00:00Z</LastSchemaUpdate>
      <LastProcessed>0001-01-01T00:00:00Z</LastProcessed>
      <State>Unprocessed</State>
      <Measures>
        <Measure dwd:design-time-name="89591d5a-4c66-483a-9f07-1c4168db48a7">
          <ID>Product Key Distinct Count</ID>
          <Name>Product Distinct Count</Name>
          <AggregateFunction>DistinctCount</AggregateFunction>
          <DataType>Integer</DataType>
          <Source dwd:design-time-name="8c506a44-634d-49e2-b80d-df4bc344c1c8">
            <DataType>Integer</DataType>
            <Source xsi:type="ColumnBinding" dwd:design-time-name="497fb1d7-b53f-4bab-aa92-2d67d168d7f8">
              <TableID>dbo_FactInternetSales</TableID>
              <ColumnID>ProductKey</ColumnID>
            </Source>
          </Source>
        </Measure>
      </Measures>
      <StorageMode>Molap</StorageMode>
      <ProcessingMode>Regular</ProcessingMode>
      <Dimensions>
        <Dimension xsi:type="RegularMeasureGroupDimension" dwd:design-time-name="65f4cdf8-bac5-4233-b987-563c52f3720b">
          <CubeDimensionID>Dim Sales Territory</CubeDimensionID>
          <Attributes>
            <Attribute dwd:design-time-name="66dc44ba-cc5a-428d-8246-e51d64adc041">
              <AttributeID>Sales Territory Key</AttributeID>
              <KeyColumns>
                <KeyColumn dwd:design-time-name="78763fce-1ae7-458a-99ef-13818e0aac5f">
                  <DataType>Integer</DataType>
                  <Source xsi:type="ColumnBinding" dwd:design-time-name="f60ed601-699c-4a2b-ac56-724af5ae8d01">
                    <TableID>dbo_FactInternetSales</TableID>
                    <ColumnID>SalesTerritoryKey</ColumnID>
                  </Source>
                </KeyColumn>
              </KeyColumns>
              <Type>Granularity</Type>
            </Attribute>
          </Attributes>
        </Dimension>
        <Dimension xsi:type="RegularMeasureGroupDimension" dwd:design-time-name="ccbcc820-3ec1-48de-8837-b052c694bdb4">
          <CubeDimensionID>Dim Customer</CubeDimensionID>
          <Attributes>
            <Attribute dwd:design-time-name="7e69e8b2-370c-4821-a971-59855815fb16">
              <AttributeID>Customer Key</AttributeID>
              <KeyColumns>
                <KeyColumn dwd:design-time-name="21fac7e5-55ca-4aad-bf1c-86c3a25eb062">
                  <DataType>Integer</DataType>
                  <Source xsi:type="ColumnBinding" dwd:design-time-name="26a3057f-9c6a-4e7f-96dd-f3770f6cf12d">
                    <TableID>dbo_FactInternetSales</TableID>
                    <ColumnID>CustomerKey</ColumnID>
                  </Source>
                </KeyColumn>
              </KeyColumns>
              <Type>Granularity</Type>
            </Attribute>
          </Attributes>
        </Dimension>
        <Dimension xsi:type="RegularMeasureGroupDimension" dwd:design-time-name="efae023f-5bdc-438b-b7a5-d0b725cdfa99">
          <CubeDimensionID>Dim Promotion</CubeDimensionID>
          <Attributes>
            <Attribute dwd:design-time-name="e7026346-d7b3-4018-9300-29627be85e35">
              <AttributeID>Promotion Key</AttributeID>
              <KeyColumns>
                <KeyColumn dwd:design-time-name="5102bbc0-3708-45b2-b5e5-cf457dd5cddd">
                  <DataType>Integer</DataType>
                  <Source xsi:type="ColumnBinding" dwd:design-time-name="9bf41469-17d5-4937-816d-7ed0fb6f4032">
                    <TableID>dbo_FactInternetSales</TableID>
                    <ColumnID>PromotionKey</ColumnID>
                  </Source>
                </KeyColumn>
              </KeyColumns>
              <Type>Granularity</Type>
            </Attribute>
          </Attributes>
        </Dimension>
        <Dimension xsi:type="RegularMeasureGroupDimension" dwd:design-time-name="eace28bb-090e-46c2-b461-669ee50827aa">
          <CubeDimensionID>Dim Product</CubeDimensionID>
          <Attributes>
            <Attribute dwd:design-time-name="7ae3d69b-6783-4d39-b951-c67462174295">
              <AttributeID>Product Key</AttributeID>
              <KeyColumns>
                <KeyColumn dwd:design-time-name="8b0ee781-ac9a-4c80-8ea5-4e4ae2d13f88">
                  <DataType>Integer</DataType>
                  <Source xsi:type="ColumnBinding" dwd:design-time-name="1f343b0f-f97a-403a-906d-992d948c8b70">
                    <TableID>dbo_FactInternetSales</TableID>
                    <ColumnID>ProductKey</ColumnID>
                  </Source>
                </KeyColumn>
              </KeyColumns>
              <Type>Granularity</Type>
            </Attribute>
          </Attributes>
        </Dimension>
        <Dimension xsi:type="RegularMeasureGroupDimension" dwd:design-time-name="5a396466-1afc-4b6e-9d94-eed5828ee58d">
          <CubeDimensionID>Order Date</CubeDimensionID>
          <Attributes>
            <Attribute dwd:design-time-name="70f9a9c3-47fd-41aa-af5a-5e0abbb9aab5">
              <AttributeID>Date Key</AttributeID>
              <KeyColumns>
                <KeyColumn dwd:design-time-name="854d9543-6c13-4cd1-93d7-d3f83b772fdc">
                  <DataType>Integer</DataType>
                  <Source xsi:type="ColumnBinding" dwd:design-time-name="2650bdcc-152a-4dec-b2b0-b846084fdad1">
                    <TableID>dbo_FactInternetSales</TableID>
                    <ColumnID>OrderDateKey</ColumnID>
                  </Source>
                </KeyColumn>
              </KeyColumns>
              <Type>Granularity</Type>
            </Attribute>
          </Attributes>
        </Dimension>
        <Dimension xsi:type="RegularMeasureGroupDimension" dwd:design-time-name="a85a47ff-96e5-4797-b71f-54a973860208">
          <CubeDimensionID>Ship Date</CubeDimensionID>
          <Attributes>
            <Attribute dwd:design-time-name="f0829e02-29bb-4efe-a59d-f1b7f1624be5">
              <AttributeID>Date Key</AttributeID>
              <KeyColumns>
                <KeyColumn dwd:design-time-name="3a12bd1d-1bb3-4f6d-9923-e3624ef808a8">
                  <DataType>Integer</DataType>
                  <Source xsi:type="ColumnBinding" dwd:design-time-name="d881a118-8e98-4431-a16a-5db05f701761">
                    <TableID>dbo_FactInternetSales</TableID>
                    <ColumnID>ShipDateKey</ColumnID>
                  </Source>
                </KeyColumn>
              </KeyColumns>
              <Type>Granularity</Type>
            </Attribute>
          </Attributes>
        </Dimension>
        <Dimension xsi:type="RegularMeasureGroupDimension" dwd:design-time-name="1302ed1d-d829-446a-a5a7-8a51803fa481">
          <CubeDimensionID>Due Date</CubeDimensionID>
          <Attributes>
            <Attribute dwd:design-time-name="3d450648-b6ab-4e15-a822-36d8b7699674">
              <AttributeID>Date Key</AttributeID>
              <KeyColumns>
                <KeyColumn dwd:design-time-name="1fe18f28-6584-4d6b-84e8-07d251845328">
                  <DataType>Integer</DataType>
                  <Source xsi:type="ColumnBinding" dwd:design-time-name="1f6d1007-fa5d-4ad9-b40d-5c4cecf74289">
                    <TableID>dbo_FactInternetSales</TableID>
                    <ColumnID>DueDateKey</ColumnID>
                  </Source>
                </KeyColumn>
              </KeyColumns>
              <Type>Granularity</Type>
            </Attribute>
          </Attributes>
        </Dimension>
      </Dimensions>
      <Partitions />
    </MeasureGroup>
  </MeasureGroups>
  <Source dwd:design-time-name="94da8704-0ca2-4024-91a3-05772581d554">
    <DataSourceViewID>AdventureWorksDW2014</DataSourceViewID>
  </Source>
</Cube>